{
  "new_entries": {
    "has_next": false,
    "page": 1,
    "results": []
  },
  "last_updated_data": "2024-09-15T18:30:58Z",
  "league": {
    "id": 1,
    "name": "Arsenal",
    "created": "2024-07-17T11:51:46.252125Z",
    "closed": false,
    "max_entries": null,
    "league_type": "s",
    "scoring": "c",
    "admin_entry": null,
    "start_event": 1,
    "code_privacy": "p",
    "has_cup": true,
    "cup_league": null,
    "rank": null
  },
  "standings": {
    "has_next": true,
    "page": 5,
    "results": [
      {
        "id": 21779301,
        "event_total": 90,
        "player_name": "T Nuevo",
        "rank": 186,
        "last_rank": 13082,
        "rank_sort": 201,
        "total": 342,
        "entry": 3206180,
        "entry_name": "Blood diamonds"
      },
      {
        "id": 507255,
        "event_total": 88,
        "player_name": "Natty Haile",
        "rank": 186,
        "last_rank": 9827,
        "rank_sort": 202,
        "total": 342,
        "entry": 85044,
        "entry_name": "#14"
      },
      {
        "id": 12183110,
        "event_total": 57,
        "player_name": "Ravyar Azad",
        "rank": 203,
        "last_rank": 46,
        "rank_sort": 203,
        "total": 342,
        "entry": 1872314,
        "entry_name": "Fc Kurdistan"
      },
      {
        "id": 38045679,
        "event_total": 64,
        "player_name": "Atong Hirang",
        "rank": 203,
        "last_rank": 238,
        "rank_sort": 204,
        "total": 342,
        "entry": 5200962,
        "entry_name": "Jumud Nakal"
      },
      {
        "id": 1631390,
        "event_total": 62,
        "player_name": "Peter Robinson",
        "rank": 203,
        "last_rank": 148,
        "rank_sort": 205,
        "total": 342,
        "entry": 264155,
        "entry_name": "harrykaine11"
      },
      {
        "id": 63586102,
        "event_total": 62,
        "player_name": "Agus Gauss",
        "rank": 203,
        "last_rank": 148,
        "rank_sort": 206,
        "total": 342,
        "entry": 7548886,
        "entry_name": "Gauss"
      },
      {
        "id": 41194027,
        "event_total": 77,
        "player_name": "Anwar Reda",
        "rank": 203,
        "last_rank": 2133,
        "rank_sort": 207,
        "total": 342,
        "entry": 5524216,
        "entry_name": "المدفع �"
      },
      {
        "id": 69610804,
        "event_total": 76,
        "player_name": "Melvin K",
        "rank": 203,
        "last_rank": 1850,
        "rank_sort": 208,
        "total": 342,
        "entry": 8163127,
        "entry_name": "there we land!!"
      },
      {
        "id": 61857286,
        "event_total": 70,
        "player_name": "Abdelrahman Tahoon",
        "rank": 203,
        "last_rank": 688,
        "rank_sort": 209,
        "total": 342,
        "entry": 7369144,
        "entry_name": "Ta"
      },
      {
        "id": 58024237,
        "event_total": 71,
        "player_name": "Mathias Scotland",
        "rank": 203,
        "last_rank": 827,
        "rank_sort": 210,
        "total": 342,
        "entry": 6958438,
        "entry_name": "Omnishots"
      },
      {
        "id": 56980061,
        "event_total": 68,
        "player_name": "Fit Zarie",
        "rank": 203,
        "last_rank": 463,
        "rank_sort": 211,
        "total": 342,
        "entry": 6845093,
        "entry_name": "Berapa Dory Harini?"
      },
      {
        "id": 30156911,
        "event_total": 86,
        "player_name": "Giles Constable",
        "rank": 203,
        "last_rank": 7736,
        "rank_sort": 212,
        "total": 342,
        "entry": 4218559,
        "entry_name": "Sportingzuccini"
      },
      {
        "id": 37609777,
        "event_total": 64,
        "player_name": "Matias Kimpimäki",
        "rank": 203,
        "last_rank": 222,
        "rank_sort": 213,
        "total": 342,
        "entry": 5146488,
        "entry_name": "ylikylä fc"
      },
      {
        "id": 32189243,
        "event_total": 74,
        "player_name": "Mustapha Sabo",
        "rank": 203,
        "last_rank": 1328,
        "rank_sort": 214,
        "total": 342,
        "entry": 4481762,
        "entry_name": "SMM"
      },
      {
        "id": 28653730,
        "event_total": 94,
        "player_name": "Ashley Bonney",
        "rank": 203,
        "last_rank": 21811,
        "rank_sort": 215,
        "total": 342,
        "entry": 4028729,
        "entry_name": "Prefer Golf Anyway"
      },
      {
        "id": 31225933,
        "event_total": 83,
        "player_name": "Dama Dominic",
        "rank": 203,
        "last_rank": 5066,
        "rank_sort": 216,
        "total": 342,
        "entry": 4357305,
        "entry_name": "The Reds"
      },
      {
        "id": 2269073,
        "event_total": 67,
        "player_name": "Dracarys Vhagar",
        "rank": 217,
        "last_rank": 188,
        "rank_sort": 217,
        "total": 342,
        "entry": 364167,
        "entry_name": "Dark Phoenix"
      },
      {
        "id": 13994678,
        "event_total": 85,
        "player_name": "Desmond Philip",
        "rank": 217,
        "last_rank": 1050,
        "rank_sort": 218,
        "total": 342,
        "entry": 2133794,
        "entry_name": "Desmanian Devils"
      },
      {
        "id": 31399,
        "event_total": 78,
        "player_name": "Jay Singh",
        "rank": 217,
        "last_rank": 1328,
        "rank_sort": 219,
        "total": 342,
        "entry": 6211,
        "entry_name": "Havent Jota Clue"
      },
      {
        "id": 3367307,
        "event_total": 79,
        "player_name": "James Zinonos",
        "rank": 217,
        "last_rank": 3083,
        "rank_sort": 220,
        "total": 342,
        "entry": 539572,
        "entry_name": "Balotellitubies"
      },
      {
        "id": 55381940,
        "event_total": 80,
        "player_name": "Komal Toheed",
        "rank": 221,
        "last_rank": 3608,
        "rank_sort": 221,
        "total": 342,
        "entry": 6674798,
        "entry_name": "Komal's XI"
      },
      {
        "id": 58940406,
        "event_total": 72,
        "player_name": "Abdo Sabry",
        "rank": 222,
        "last_rank": 1050,
        "rank_sort": 222,
        "total": 341,
        "entry": 7057591,
        "entry_name": "it is what it is"
      },
      {
        "id": 53005167,
        "event_total": 90,
        "player_name": "Matthew Priestley",
        "rank": 222,
        "last_rank": 14446,
        "rank_sort": 223,
        "total": 341,
        "entry": 6424250,
        "entry_name": "nacho cheese"
      },
      {
        "id": 20049476,
        "event_total": 61,
        "player_name": "Saaed Ahmed",
        "rank": 224,
        "last_rank": 140,
        "rank_sort": 224,
        "total": 341,
        "entry": 2977219,
        "entry_name": "saeed"
      },
      {
        "id": 60222095,
        "event_total": 67,
        "player_name": "Desha Abdelrazk",
        "rank": 224,
        "last_rank": 463,
        "rank_sort": 225,
        "total": 341,
        "entry": 7196093,
        "entry_name": "ONE PIECE"
      },
      {
        "id": 56048996,
        "event_total": 67,
        "player_name": "Oluwashina Ojo",
        "rank": 224,
        "last_rank": 463,
        "rank_sort": 226,
        "total": 341,
        "entry": 6745279,
        "entry_name": "BeatByAGirl"
      },
      {
        "id": 215497,
        "event_total": 50,
        "player_name": "islem bousselmi",
        "rank": 227,
        "last_rank": 17,
        "rank_sort": 227,
        "total": 341,
        "entry": 37028,
        "entry_name": "مختار السحار ✌️"
      },
      {
        "id": 9639903,
        "event_total": 60,
        "player_name": "René Jarrett",
        "rank": 227,
        "last_rank": 106,
        "rank_sort": 228,
        "total": 341,
        "entry": 1498534,
        "entry_name": "What’s the Mateta?"
      },
      {
        "id": 13977965,
        "event_total": 60,
        "player_name": "Francois Nel",
        "rank": 227,
        "last_rank": 117,
        "rank_sort": 229,
        "total": 341,
        "entry": 2131452,
        "entry_name": "Invincibles AFC"
      },
      {
        "id": 4489792,
        "event_total": 78,
        "player_name": "Aliyu M Auwal",
        "rank": 227,
        "last_rank": 2888,
        "rank_sort": 230,
        "total": 341,
        "entry": 714419,
        "entry_name": "Goal Diggers ⚽"
      },
      {
        "id": 28817247,
        "event_total": 78,
        "player_name": "Jayden O donovan",
        "rank": 227,
        "last_rank": 2888,
        "rank_sort": 231,
        "total": 341,
        "entry": 4049783,
        "entry_name": "dunnies bunnies"
      },
      {
        "id": 45951758,
        "event_total": 75,
        "player_name": "Mohame Spinkes",
        "rank": 227,
        "last_rank": 1764,
        "rank_sort": 232,
        "total": 341,
        "entry": 5888068,
        "entry_name": "Spinkes"
      },
      {
        "id": 55364905,
        "event_total": 68,
        "player_name": "Ca_ dz",
        "rank": 233,
        "last_rank": 556,
        "rank_sort": 233,
        "total": 341,
        "entry": 6672950,
        "entry_name": "Madrid"
      },
      {
        "id": 176570,
        "event_total": 75,
        "player_name": "Mohamed Najeh",
        "rank": 233,
        "last_rank": 1850,
        "rank_sort": 234,
        "total": 341,
        "entry": 30959,
        "entry_name": "HRZ"
      },
      {
        "id": 57915384,
        "event_total": 68,
        "player_name": "Alex Colley",
        "rank": 233,
        "last_rank": 539,
        "rank_sort": 235,
        "total": 341,
        "entry": 6946456,
        "entry_name": "Smarteta FC"
      },
      {
        "id": 27814024,
        "event_total": 76,
        "player_name": "Abdulio .",
        "rank": 233,
        "last_rank": 2048,
        "rank_sort": 236,
        "total": 341,
        "entry": 3945686,
        "entry_name": "King Kai"
      },
      {
        "id": 20581974,
        "event_total": 66,
        "player_name": "Mellissa Drummond",
        "rank": 233,
        "last_rank": 409,
        "rank_sort": 237,
        "total": 341,
        "entry": 3046142,
        "entry_name": "Rich Auntie FC"
      },
      {
        "id": 56430239,
        "event_total": 83,
        "player_name": "Omar Arnous",
        "rank": 233,
        "last_rank": 6125,
        "rank_sort": 238,
        "total": 341,
        "entry": 6786405,
        "entry_name": "arnous"
      },
      {
        "id": 53906244,
        "event_total": 77,
        "player_name": "Mustapha Kurfi",
        "rank": 233,
        "last_rank": 2483,
        "rank_sort": 239,
        "total": 341,
        "entry": 6517532,
        "entry_name": "gunner�"
      },
      {
        "id": 24670244,
        "event_total": 79,
        "player_name": "Kondapally Srivatsa",
        "rank": 233,
        "last_rank": 3366,
        "rank_sort": 240,
        "total": 341,
        "entry": 3587601,
        "entry_name": "vatsa144"
      },
      {
        "id": 22959380,
        "event_total": 77,
        "player_name": "Tony Atkins",
        "rank": 233,
        "last_rank": 2379,
        "rank_sort": 241,
        "total": 341,
        "entry": 3362777,
        "entry_name": "KINO KINO"
      },
      {
        "id": 19897564,
        "event_total": 67,
        "player_name": "Deniz Ozturk",
        "rank": 233,
        "last_rank": 489,
        "rank_sort": 242,
        "total": 341,
        "entry": 2955874,
        "entry_name": "Mourinho's Men"
      },
      {
        "id": 4791809,
        "event_total": 70,
        "player_name": "Simon Drew",
        "rank": 233,
        "last_rank": 794,
        "rank_sort": 243,
        "total": 341,
        "entry": 761313,
        "entry_name": "SimonousMaximus"
      },
      {
        "id": 68117630,
        "event_total": 60,
        "player_name": "Abdullah Al Asfourr",
        "rank": 233,
        "last_rank": 43,
        "rank_sort": 244,
        "total": 341,
        "entry": 8012237,
        "entry_name": "A2S2A"
      },
      {
        "id": 44020699,
        "event_total": 67,
        "player_name": "Technical Genius",
        "rank": 233,
        "last_rank": 463,
        "rank_sort": 245,
        "total": 341,
        "entry": 5753477,
        "entry_name": "TechnicalGenius"
      },
      {
        "id": 26153931,
        "event_total": 76,
        "player_name": "Josh Gowan",
        "rank": 233,
        "last_rank": 1999,
        "rank_sort": 246,
        "total": 341,
        "entry": 3776438,
        "entry_name": "Riddled"
      },
      {
        "id": 3124700,
        "event_total": 70,
        "player_name": "Charlie Hunt",
        "rank": 233,
        "last_rank": 794,
        "rank_sort": 247,
        "total": 341,
        "entry": 500885,
        "entry_name": "Rice Rice baby"
      },
      {
        "id": 56825644,
        "event_total": 81,
        "player_name": "khalifa alghafri",
        "rank": 233,
        "last_rank": 4584,
        "rank_sort": 248,
        "total": 341,
        "entry": 6828685,
        "entry_name": "Toji"
      },
      {
        "id": 46145203,
        "event_total": 82,
        "player_name": "Fredrik Lassagård",
        "rank": 233,
        "last_rank": 5302,
        "rank_sort": 249,
        "total": 341,
        "entry": 5901599,
        "entry_name": "FC BottenNapp"
      },
      {
        "id": 16303360,
        "event_total": 83,
        "player_name": "Owor Gerard",
        "rank": 233,
        "last_rank": 5882,
        "rank_sort": 250,
        "total": 341,
        "entry": 2460312,
        "entry_name": "RODENT FC"
      }
    ]
  }
}
